Issue,Issue_cat,Mean_score,Median_rank,Final_rank,Florian Ulrich Jehn,rank,Nico Wunderling,rank,Mark Workman,rank,David McKay,rank,Roger Cremades,rank,Hiromi Yamashita,rank,Viktoria Spaiser,rank,Tom Pegram,rank,Michael Hinge,rank,Emad Kiyaei,rank,Luke Kemp,rank,Christian Folberth,rank,Constantin Arnscheidt,rank,Divya Pandey,rank,Kolfinna Tomasdottir,rank,Ajay Gambhir,rank,Saskia Werners,rank,Paul Larcey,rank
Risk Accelerator: Integration of AI in Nuclear Weapons Systems,Nuclear Weapons,801.1111111,3,1,851,10,675,3,820,3,210,23,900,5,800,3,660,14,950,1,580,7,990,1,878,6,920,1,900,1,900,1,1000,1,812,4,664,18,910,1
State Capacity Deficits,Government & Politics,638.6666667,8,2,942,3,615,7,920,1,510,8,670,9,811,2,335,27,420,35,1,37,722,3,299,26,289,28,520,10,878,3,855,8,900,2,946,3,863,9
Cascading loss of food system complexity causing mass starvation merged with nearterm worst case climate conditions leading to widespread crop failure,Food Security,707.6111111,8.5,3,950,1,850,2,520,22,630,4,600,12,580,15,880,2,601,20,800,1,580,12,429,20,610,13,695,5,758,5,800,11,765,5,809,11,880,6
Displacement driven by ecological destabilisation and lack of managed relocation policies merged with Cascading Negative Social Tipping Dynamics driven by ecological destabilisation,Society,664.4444444,10,4,734,16,549,9,780,10,675,3,621,10,702,6,810,4,710,12,96,34,665,7,382,22,812,3,705,3,650,11,765,13,634,12,815,10,855,10
Unclear future of the ocean carbon sink and heat uptake,Climate Environment & Ecology,647.0555556,10.5,5,823,11,625,6,600,19,80,35,870,6,749,5,840,3,890,3,259,20,610,10,699,14,713,7,295,30,500,19,885,5,756,7,675,17,778,20
A crisis in sensemaking,Epistemics,574.5,11,6,801,13,525,10,770,11,180,25,80,29,622,11,760,8,820,8,181,25,695,4,10,36,523,18,675,6,652,10,723,15,653,10,903,4,768,21
Supercharged Surveillance States merged with psychographics,Government & Politics,652.5555556,11.5,7,870,7,375,15,720,12,300,18,800,7,900,1,420,25,650,18,600,6,600,11,911,4,430,21,640,7,700,8,990,2,304,28,746,13,790,14
AI and arms use; in bioengineering or arms races,Biosecurity,672.3333333,12,8,706,18,375,15,620,16,140,30,997,3,350,25,690,12,880,4,350,15,730,2,666,16,610,13,605,9,750,6,880,6,971,1,952,2,830,12
Artificial Intelligence and Truth Decay merged with Collapse of Truth,Epistemics,611.2222222,12,8,805,12,670,4,680,14,200,24,935,4,798,4,330,28,821,7,362,14,695,4,11,34,396,23,700,4,777,4,785,12,477,18,861,6,699,26
Catastrophic impacts from satellite megaconstellations merged with Kessler syndrome in low earth orbit disrupts communication and spacefaring technology,Space,594.3888889,12,8,889,6,320,20,888,2,440,10,1,33,700,7,790,5,665,17,800,1,440,20,977,1,660,10,500,14,250,36,520,25,313,27,658,19,888,4
Collapse of trade networks due to destruction of key hubs and/or cascading food export bans,Food Security,628.8888889,13,11,949,2,875,1,790,6,750,1,50,31,460,20,520,18,500,26,550,9,670,6,690,15,710,8,505,13,600,13,890,4,467,19,559,23,785,17
Political radicalisation & polarisation driven by ecological destabilisation and mitigation policies that disregard equity,Society,539.1111111,14,12,704,19,550,8,169,37,390,12,620,11,609,13,770,7,760,11,12,36,525,15,789,9,761,4,350,22,500,19,580,23,235,31,1000,1,380,37
"Large-scale heat stress impacts on humans, subsistence, and industry in the tropics",Climate Environment & Ecology,610.7222222,15,13,555,24,650,5,610,18,550,6,200,25,670,9,620,15,615,19,330,16,660,8,592,18,605,15,800,2,650,11,875,7,499,17,872,5,640,30
Accelerated development and deployment of AWS without adequate oversight,War & Security,547.3333333,16,14,751,14,350,17,680,14,380,13,550,14,620,12,470,22,910,2,220,23,510,16,743,13,340,25,380,21,400,29,705,16,764,6,294,36,785,17
Geoengineering to prevent climate tipping points increases tail risk of termination shock,Climate Environment & Ecology,514.3888889,17.5,15,364,30,125,33,520,22,530,7,550,14,150,30,530,17,870,6,320,17,290,26,856,7,720,5,420,18,400,29,601,20,547,15,733,14,733,23
A New Limits to Growth: Overacceleration due to AI,AI,515.9444444,18,16,443,29,400,14,712,13,330,17,200,25,601,14,350,26,499,28,456,10,333,23,899,5,901,2,515,11,500,19,630,19,333,25,299,35,886,5
Unilateral Deployment of Solar Radiation Management,Climate Environment & Ecology,478.5,18,16,748,15,490,13,820,3,350,16,440,17,211,29,680,13,871,5,125,29,111,34,777,11,491,19,385,20,511,17,170,36,441,20,294,36,698,27
Cracks in the foundation: critical transitions in degrading soil pose civilizational risks merged with can degrading soil microbiome cause regime shifts in soils?,Climate Environment & Ecology,529.6666667,18.5,18,10,37,500,12,570,21,110,32,999,1,650,10,750,9,600,21,150,27,630,9,599,17,120,36,300,28,888,2,900,3,215,32,653,20,890,3
Status-Quo Path-Dependence by Elites merged with Erosion of Social Cohesion,Society,515.7777778,18.5,18,603,23,350,17,480,24,240,21,300,22,352,23,610,16,300,37,450,11,450,18,555,19,690,9,400,19,748,7,850,9,348,24,693,16,865,8
"Increasing automation of economy and industry results in ever greater efficiencies, but drive the global economy and digital system closer to a tipping point of sociotechnical fragility, that can be triggered by small shocks, merged with automation, simplification, and collapse",Systemic Risk,465.9444444,20,20,104,35,300,22,620,16,300,18,80,29,312,26,310,30,520,24,420,12,230,28,771,12,720,5,510,12,400,29,705,16,382,22,803,12,900,2
The risk of sudden massive crop losses due to biosecurity risks.,Biosecurity,487.2222222,21,21,658,22,325,19,340,29,170,27,998,2,300,27,490,21,700,14,300,18,380,22,222,28,290,27,480,16,599,15,600,21,410,21,838,8,670,29
A Tipping Point in Novel Entities,Climate Environment & Ecology,488.8333333,22.5,22,682,20,250,27,579,20,270,20,1,33,502,16,740,10,480,30,793,3,270,27,959,2,196,32,310,26,600,13,350,31,611,13,513,25,693,28
"Crisis, gridlock, and accelerating fragility",Government & Politics,433.1111111,23,23,247,33,245,28,280,32,230,22,551,13,150,30,430,24,490,29,570,8,385,21,411,21,616,12,190,34,400,29,830,10,598,14,385,29,788,15
Deteriorating quality of the governance of nuclear weapon states,Government & Politics,449.7222222,23,23,726,17,300,22,380,28,360,14,350,20,450,21,210,33,800,9,100,33,300,25,301,25,560,16,490,15,300,34,450,29,733,8,555,24,730,24
Locked in climate tipping point impacts undermines capacity for climate action: ice sheet collapse and sea level rise merged with weakening of the AMOC,Climate Environment & Ecology,464.3333333,23,23,337,31,150,32,400,25,750,1,1,33,680,8,695,11,695,15,159,26,444,19,345,24,411,22,305,27,499,25,305,33,545,16,858,7,779,19
Recovery of global communication systems from long-term downtime,Systemic Risk,472.3888889,24,26,863,8,220,30,320,30,180,25,1,33,100,36,890,1,550,23,650,5,310,24,950,3,390,24,620,8,500,19,502,27,376,23,496,26,585,34
Emerging technologies and geopolitical instability,Government & Politics,373.6666667,25,27,321,32,310,21,790,6,60,36,100,28,360,22,230,31,560,22,243,21,222,29,4,37,236,31,335,23,500,19,310,32,837,3,467,27,841,11
"ICT infrastructure failures, supply chains, and food security",Systemic Risk,398.7222222,25,27,911,5,270,25,305,31,100,33,150,27,289,28,190,36,501,25,274,19,510,16,278,27,620,11,315,25,501,18,550,24,200,33,391,28,822,13
Extreme positive feedback on global through stratocumulus cloud break up is not reversible through solar geoengineering,Climate Environment & Ecology,422.5555556,26.5,29,682,20,210,31,220,34,360,14,720,8,498,17,510,20,670,16,117,31,150,32,787,10,254,29,470,17,300,34,500,28,109,37,339,32,710,25
The expectation of solar radiation management destroys decarbonisation incentives,Climate Environment & Ecology,376.9444444,26.5,29,158,34,240,29,790,6,420,11,260,23,351,24,435,23,450,33,126,28,105,35,222,28,436,20,250,31,444,27,590,22,329,26,565,22,614,32
Interactions of global catastrophic risks with each other and systemic risk in general,Systemic Risk,410.8888889,27.5,31,913,4,110,34,799,5,150,29,350,20,130,34,200,34,500,26,700,4,150,32,11,34,171,33,180,35,500,19,420,30,650,11,727,15,735,22
Use of inadequate tools for climate risk assessment and adaptation,Climate Environment & Ecology,387.5,27.5,31,507,25,90,36,200,35,570,5,430,18,145,33,215,32,460,32,74,35,555,14,376,23,532,17,200,33,667,9,512,26,300,29,354,31,788,15
Combination of natural and technological disasters,Systemic Risk,415.4444444,28,33,452,28,510,11,789,9,120,31,460,16,489,18,180,37,410,36,223,22,565,13,84,33,241,30,297,29,432,28,647,18,656,9,334,33,589,33
Societal Tipping points as the main mechanism for societal collapse,Society,316.5,30,34,487,26,290,24,200,35,500,9,401,19,102,35,515,19,705,13,120,30,180,30,90,32,310,26,220,32,350,33,260,34,110,36,357,30,500,35
Loss of primary productivity,Climate Environment & Ecology,281.6111111,30.5,35,50,36,270,25,392,27,90,34,240,24,489,18,320,29,470,31,104,32,101,36,124,30,156,34,155,36,496,26,120,37,299,30,325,34,868,7
Collapse of economic growth,Economics,316.5,31,36,480,27,95,35,280,32,170,27,1,33,146,32,195,35,430,34,212,24,170,31,111,31,140,35,320,24,565,16,750,14,187,34,826,9,619,31
Change to a superrotating state of the atmosphere,Climate Environment & Ecology,331.4444444,35,37,858,9,25,37,400,25,50,37,25,32,1,37,780,6,775,10,420,12,100,37,814,8,90,37,50,37,250,36,200,35,135,35,593,21,400,36